<define-tag pagetitle>DSA-4651-1 mediawiki</define-tag>
<define-tag report_date>2020-4-02</define-tag>
<define-tag secrefs>CVE-2020-10960</define-tag>
<define-tag packages>mediawiki</define-tag>
<define-tag isvulnerable>yes</define-tag>
<define-tag fixed>yes</define-tag>
<define-tag fixed-section>no</define-tag>

#use wml::debian::security



</dl>
