<define-tag pagetitle>DLA-1060-1 libxml2</define-tag>
<define-tag report_date>2017-8-19</define-tag>
<define-tag secrefs>CVE-2017-0663 CVE-2017-7376</define-tag>
<define-tag packages>libxml2</define-tag>
<define-tag isvulnerable>yes</define-tag>
<define-tag fixed>yes</define-tag>
<define-tag fixed-section>no</define-tag>

#use wml::debian::security

