<define-tag pagetitle>DLA-779-1 tomcat7</define-tag>
<define-tag report_date>2017-1-10</define-tag>
<define-tag secrefs>CVE-2016-8745 Bug#849949</define-tag>
<define-tag packages>tomcat7</define-tag>
<define-tag isvulnerable>yes</define-tag>
<define-tag fixed>yes</define-tag>
<define-tag fixed-section>no</define-tag>

#use wml::debian::security

