<define-tag pagetitle>DLA-965-1 qemu-kvm</define-tag>
<define-tag report_date>2017-5-31</define-tag>
<define-tag secrefs>CVE-2016-9602 CVE-2017-7377 CVE-2017-7471 CVE-2017-7493 CVE-2017-8086</define-tag>
<define-tag packages>qemu-kvm</define-tag>
<define-tag isvulnerable>yes</define-tag>
<define-tag fixed>yes</define-tag>
<define-tag fixed-section>no</define-tag>

#use wml::debian::security

