<define-tag pagetitle>DLA-1213-1 openafs</define-tag>
<define-tag report_date>2017-12-20</define-tag>
<define-tag secrefs>CVE-2017-17432</define-tag>
<define-tag packages>openafs</define-tag>
<define-tag isvulnerable>yes</define-tag>
<define-tag fixed>yes</define-tag>
<define-tag fixed-section>no</define-tag>

#use wml::debian::security

