<define-tag pagetitle>DLA-2338-1 proftpd-dfsg</define-tag>
<define-tag report_date>2020-8-22</define-tag>
<define-tag secrefs>not available Bug#923926</define-tag>
<define-tag packages>proftpd-dfsg</define-tag>
<define-tag isvulnerable>yes</define-tag>
<define-tag fixed>yes</define-tag>
<define-tag fixed-section>no</define-tag>

#use wml::debian::security

