<define-tag pagetitle>DLA-2431-1 libonig</define-tag>
<define-tag report_date>2020-11-5</define-tag>
<define-tag secrefs>CVE-2019-13224 CVE-2019-16163 CVE-2019-19012 CVE-2019-19203 CVE-2019-19204 CVE-2019-19246 CVE-2020-26159 Bug#931878 Bug#939988 Bug#944959 Bug#945312 Bug#945313 Bug#946344 Bug#972113</define-tag>
<define-tag packages>libonig</define-tag>
<define-tag isvulnerable>yes</define-tag>
<define-tag fixed>yes</define-tag>
<define-tag fixed-section>no</define-tag>

#use wml::debian::security

