<define-tag pagetitle>DLA-2076-1 slirp</define-tag>
<define-tag report_date>2020-1-26</define-tag>
<define-tag secrefs>CVE-2020-7039 Bug#949085</define-tag>
<define-tag packages>slirp</define-tag>
<define-tag isvulnerable>yes</define-tag>
<define-tag fixed>yes</define-tag>
<define-tag fixed-section>no</define-tag>

#use wml::debian::security

