<define-tag pagetitle>DLA-2175-1 php-horde-trean</define-tag>
<define-tag report_date>2020-04-14</define-tag>
<define-tag secrefs>CVE-2020-8865 Bug#955019</define-tag>
<define-tag packages>php-horde-trean</define-tag>
<define-tag isvulnerable>yes</define-tag>
<define-tag fixed>yes</define-tag>
<define-tag fixed-section>no</define-tag>

#use wml::debian::security

