<define-tag pagetitle>DLA-2440-1 poppler</define-tag>
<define-tag report_date>2020-11-09</define-tag>
<define-tag secrefs>CVE-2017-14926 CVE-2017-14928 CVE-2018-19058 CVE-2018-20650 CVE-2018-20662 CVE-2019-7310 CVE-2019-9959 CVE-2019-10018 CVE-2019-14494 Bug#877239 Bug#877231 Bug#913177 Bug#917974 Bug#918158 Bug#926133</define-tag>
<define-tag packages>poppler</define-tag>
<define-tag isvulnerable>yes</define-tag>
<define-tag fixed>yes</define-tag>
<define-tag fixed-section>no</define-tag>

#use wml::debian::security

