<define-tag pagetitle>DLA-2392-1 jruby</define-tag>
<define-tag report_date>2020-10-01</define-tag>
<define-tag secrefs>CVE-2020-25613</define-tag>
<define-tag packages>jruby</define-tag>
<define-tag isvulnerable>yes</define-tag>
<define-tag fixed>yes</define-tag>
<define-tag fixed-section>no</define-tag>

#use wml::debian::security

