<define-tag pagetitle>DLA-2244-1 libphp-phpmailer</define-tag>
<define-tag report_date>2020-06-11</define-tag>
<define-tag secrefs>CVE-2020-13625</define-tag>
<define-tag packages>libphp-phpmailer</define-tag>
<define-tag isvulnerable>yes</define-tag>
<define-tag fixed>yes</define-tag>
<define-tag fixed-section>no</define-tag>

#use wml::debian::security
