<define-tag pagetitle>DLA-2329-1 libetpan</define-tag>
<define-tag report_date>2020-08-16</define-tag>
<define-tag secrefs>CVE-2020-15953</define-tag>
<define-tag packages>libetpan</define-tag>
<define-tag isvulnerable>yes</define-tag>
<define-tag fixed>yes</define-tag>
<define-tag fixed-section>no</define-tag>

#use wml::debian::security

