<define-tag pagetitle>DLA-2352-1 php-horde-gollem</define-tag>
<define-tag report_date>2020-08-29</define-tag>
<define-tag secrefs>CVE-2017-15235</define-tag>
<define-tag packages>php-horde-gollem</define-tag>
<define-tag isvulnerable>yes</define-tag>
<define-tag fixed>yes</define-tag>
<define-tag fixed-section>no</define-tag>

#use wml::debian::security

