<define-tag pagetitle>DLA-2127-1 dojo</define-tag>
<define-tag report_date>2020-02-29</define-tag>
<define-tag secrefs>CVE-2019-10785 Bug#952771</define-tag>
<define-tag packages>dojo</define-tag>
<define-tag isvulnerable>yes</define-tag>
<define-tag fixed>yes</define-tag>
<define-tag fixed-section>no</define-tag>

#use wml::debian::security

