<define-tag pagetitle>DLA-1275-1 uwsgi</define-tag>
<define-tag report_date>2018-2-10</define-tag>
<define-tag secrefs>CVE-2018-6758 Bug#889753</define-tag>
<define-tag packages>uwsgi</define-tag>
<define-tag isvulnerable>yes</define-tag>
<define-tag fixed>yes</define-tag>
<define-tag fixed-section>no</define-tag>

#use wml::debian::security

