<define-tag pagetitle>DLA-1430-1 taglib</define-tag>
<define-tag report_date>2018-7-18</define-tag>
<define-tag secrefs>CVE-2018-11439</define-tag>
<define-tag packages>taglib</define-tag>
<define-tag isvulnerable>yes</define-tag>
<define-tag fixed>yes</define-tag>
<define-tag fixed-section>no</define-tag>

#use wml::debian::security

