<define-tag pagetitle>DLA-1505-1 zutils</define-tag>
<define-tag report_date>2018-9-15</define-tag>
<define-tag secrefs>CVE-2018-1000637 Bug#902936</define-tag>
<define-tag packages>zutils</define-tag>
<define-tag isvulnerable>yes</define-tag>
<define-tag fixed>yes</define-tag>
<define-tag fixed-section>no</define-tag>

#use wml::debian::security

