<define-tag pagetitle>DLA-1501-1 libextractor</define-tag>
<define-tag report_date>2018-9-11</define-tag>
<define-tag secrefs>CVE-2018-16430 Bug##907987</define-tag>
<define-tag packages>libextractor</define-tag>
<define-tag isvulnerable>yes</define-tag>
<define-tag fixed>yes</define-tag>
<define-tag fixed-section>no</define-tag>

#use wml::debian::security

