<define-tag pagetitle>DLA-1589-1 icecast2</define-tag>
<define-tag report_date>2018-11-26</define-tag>
<define-tag secrefs>CVE-2018-19115 Bug#914393</define-tag>
<define-tag packages>icecast2</define-tag>
<define-tag isvulnerable>yes</define-tag>
<define-tag fixed>yes</define-tag>
<define-tag fixed-section>no</define-tag>

#use wml::debian::security

