<define-tag pagetitle>DSA-4550-1 file</define-tag>
<define-tag report_date>2019-10-25</define-tag>
<define-tag secrefs>CVE-2019-18218</define-tag>
<define-tag packages>file</define-tag>
<define-tag isvulnerable>yes</define-tag>
<define-tag fixed>yes</define-tag>
<define-tag fixed-section>no</define-tag>

#use wml::debian::security



</dl>
