<define-tag pagetitle>DSA-4588-1 python-ecdsa</define-tag>
<define-tag report_date>2019-12-17</define-tag>
<define-tag secrefs>CVE-2019-14853 CVE-2019-14859</define-tag>
<define-tag packages>python-ecdsa</define-tag>
<define-tag isvulnerable>yes</define-tag>
<define-tag fixed>yes</define-tag>
<define-tag fixed-section>no</define-tag>

#use wml::debian::security



</dl>
