<define-tag pagetitle>DSA-4407-1 xmltooling</define-tag>
<define-tag report_date>2019-3-12</define-tag>
<define-tag secrefs>CVE-2019-9628</define-tag>
<define-tag packages>xmltooling</define-tag>
<define-tag isvulnerable>yes</define-tag>
<define-tag fixed>yes</define-tag>
<define-tag fixed-section>no</define-tag>

#use wml::debian::security



</dl>
