<define-tag pagetitle>DSA-4416-1 wireshark</define-tag>
<define-tag report_date>2019-3-24</define-tag>
<define-tag secrefs>CVE-2019-5716 CVE-2019-5717 CVE-2019-5718 CVE-2019-5719 CVE-2019-9208 CVE-2019-9209 CVE-2019-9214 Bug#923611</define-tag>
<define-tag packages>wireshark</define-tag>
<define-tag isvulnerable>yes</define-tag>
<define-tag fixed>yes</define-tag>
<define-tag fixed-section>no</define-tag>

#use wml::debian::security



</dl>
