<define-tag pagetitle>DLA-1661-1 mumble</define-tag>
<define-tag report_date>2019-2-6</define-tag>
<define-tag secrefs>CVE-2018-20743 Bug#919249</define-tag>
<define-tag packages>mumble</define-tag>
<define-tag isvulnerable>yes</define-tag>
<define-tag fixed>yes</define-tag>
<define-tag fixed-section>no</define-tag>

#use wml::debian::security

