<define-tag pagetitle>DLA-2026-1 htmldoc</define-tag>
<define-tag report_date>2019-12-09</define-tag>
<define-tag secrefs>CVE-2019-19630</define-tag>
<define-tag packages>htmldoc</define-tag>
<define-tag isvulnerable>yes</define-tag>
<define-tag fixed>yes</define-tag>
<define-tag fixed-section>no</define-tag>

#use wml::debian::security

