<define-tag pagetitle>DLA-506-1 dhcpcd5</define-tag>
<define-tag report_date>2016-6-6</define-tag>
<define-tag secrefs>CVE-2014-7912 CVE-2014-7913 Bug#N/A</define-tag>
<define-tag packages>dhcpcd5</define-tag>
<define-tag isvulnerable>yes</define-tag>
<define-tag fixed>yes</define-tag>
<define-tag fixed-section>no</define-tag>

#use wml::debian::security

