<define-tag pagetitle>DLA-667-1 libxv</define-tag>
<define-tag report_date>2016-10-19</define-tag>
<define-tag secrefs>CVE-2016-5407 Bug#840438</define-tag>
<define-tag packages>libxv</define-tag>
<define-tag isvulnerable>yes</define-tag>
<define-tag fixed>yes</define-tag>
<define-tag fixed-section>no</define-tag>

#use wml::debian::security

