<define-tag pagetitle>DLA-660-1 libxrandr</define-tag>
<define-tag report_date>2016-10-17</define-tag>
<define-tag secrefs>CVE-2016-7947 CVE-2016-7948 Bug#840441</define-tag>
<define-tag packages>libxrandr</define-tag>
<define-tag isvulnerable>yes</define-tag>
<define-tag fixed>yes</define-tag>
<define-tag fixed-section>no</define-tag>

#use wml::debian::security

