<define-tag pagetitle>DLA-467-1 xerces-c</define-tag>
<define-tag report_date>2016-5-12</define-tag>
<define-tag secrefs>CVE-2016-2099 Bug#823863</define-tag>
<define-tag packages>xerces-c</define-tag>
<define-tag isvulnerable>yes</define-tag>
<define-tag fixed>yes</define-tag>
<define-tag fixed-section>no</define-tag>

#use wml::debian::security

