<define-tag pagetitle>DLA-538-1 wireshark</define-tag>
<define-tag report_date>2016-6-30</define-tag>
<define-tag secrefs>CVE-2016-5350 CVE-2016-5351 CVE-2016-5353 CVE-2016-5354 CVE-2016-5355 CVE-2016-5356 CVE-2016-5357 CVE-2016-5359</define-tag>
<define-tag packages>wireshark</define-tag>
<define-tag isvulnerable>yes</define-tag>
<define-tag fixed>yes</define-tag>
<define-tag fixed-section>no</define-tag>

#use wml::debian::security

