<define-tag pagetitle>DLA-565-1 perl</define-tag>
<define-tag report_date>2016-7-28</define-tag>
<define-tag secrefs>CVE-2016-1238 CVE-2016-6185 Bug#829578</define-tag>
<define-tag packages>perl</define-tag>
<define-tag isvulnerable>yes</define-tag>
<define-tag fixed>yes</define-tag>
<define-tag fixed-section>no</define-tag>

#use wml::debian::security

