<define-tag pagetitle>DLA-633-1 wordpress</define-tag>
<define-tag report_date>2016-9-22</define-tag>
<define-tag secrefs>CVE-2015-8834 CVE-2016-4029 CVE-2016-5836 CVE-2016-6634 CVE-2016-6635 CVE-2016-7168 CVE-2016-7169 CVE-2015-3440</define-tag>
<define-tag packages>wordpress</define-tag>
<define-tag isvulnerable>yes</define-tag>
<define-tag fixed>yes</define-tag>
<define-tag fixed-section>no</define-tag>

#use wml::debian::security

