<define-tag pagetitle>DLA-481-2 phpmyadmin</define-tag>
<define-tag report_date>2016-5-30</define-tag>
<define-tag secrefs>CVE-2016-1927 CVE-2016-2038 CVE-2016-2039 CVE-2016-2040 CVE-2016-2041 CVE-2016-2045 CVE-2016-2560 Bug#825301</define-tag>
<define-tag packages>phpmyadmin</define-tag>
<define-tag isvulnerable>yes</define-tag>
<define-tag fixed>yes</define-tag>
<define-tag fixed-section>no</define-tag>

#use wml::debian::security

